<?xml version="1.0" encoding="utf-8"?>
<!-- Generator: Adobe Illustrator 16.0.0, SVG Export Plug-In . SVG Version: 6.00 Build 0)  -->
<!DOCTYPE svg PUBLIC "-//W3C//DTD SVG 1.1//EN" "http://www.w3.org/Graphics/SVG/1.1/DTD/svg11.dtd">
<svg version="1.1"
	 id="svg2" xmlns:cc="http://creativecommons.org/ns#" xmlns:rdf="http://www.w3.org/1999/02/22-rdf-syntax-ns#" xmlns:inkscape="http://www.inkscape.org/namespaces/inkscape" xmlns:svg="http://www.w3.org/2000/svg" xmlns:dc="http://purl.org/dc/elements/1.1/" xmlns:sodipodi="http://sodipodi.sourceforge.net/DTD/sodipodi-0.dtd" sodipodi:docname="coat_of_arms_military-of-kazakhstan2.svg" sodipodi:version="0.32" inkscape:version="0.46" inkscape:output_extension="org.inkscape.output.svg.inkscape"
	 xmlns="http://www.w3.org/2000/svg" xmlns:xlink="http://www.w3.org/1999/xlink" x="0px" y="0px" width="180px" height="180px"
	 viewBox="0 0 180 180" enable-background="new 0 0 180 180" xml:space="preserve">
<defs  display="none">
		<inkscape:perspective  sodipodi:type="inkscape:persp3d" inkscape:vp_x="0 : 526.18109 : 1" inkscape:vp_z="744.09448 : 526.18109 : 1" inkscape:vp_y="0 : 1000 : 0" id="perspective10" inkscape:persp3d-origin="372.04724 : 350.78739 : 1">
		</inkscape:perspective>
		<inkscape:perspective  sodipodi:type="inkscape:persp3d" inkscape:vp_x="0 : 526.18109 : 1" inkscape:vp_z="744.09448 : 526.18109 : 1" inkscape:vp_y="0 : 1000 : 0" id="perspective2390" inkscape:persp3d-origin="372.04724 : 350.78739 : 1">
		</inkscape:perspective>
		<inkscape:perspective  sodipodi:type="inkscape:persp3d" inkscape:vp_x="0 : 500 : 1" inkscape:vp_z="2000 : 500 : 1" inkscape:vp_y="0 : 1000 : 0" id="perspective2468" inkscape:persp3d-origin="1000 : 333.33333 : 1">
		</inkscape:perspective>
		<inkscape:perspective  sodipodi:type="inkscape:persp3d" inkscape:vp_x="0 : 526.18109 : 1" inkscape:vp_z="744.09448 : 526.18109 : 1" inkscape:vp_y="0 : 1000 : 0" id="perspective3514" inkscape:persp3d-origin="372.04724 : 350.78739 : 1">
		</inkscape:perspective>
		<inkscape:perspective  sodipodi:type="inkscape:persp3d" inkscape:vp_x="0 : 526.18109 : 1" inkscape:vp_z="744.09448 : 526.18109 : 1" inkscape:vp_y="0 : 1000 : 0" id="perspective2475" inkscape:persp3d-origin="372.04724 : 350.78739 : 1">
		</inkscape:perspective>
		<inkscape:perspective  sodipodi:type="inkscape:persp3d" inkscape:vp_x="0 : 526.18109 : 1" inkscape:vp_z="744.09448 : 526.18109 : 1" inkscape:vp_y="0 : 1000 : 0" id="perspective2477" inkscape:persp3d-origin="372.04724 : 350.78739 : 1">
		</inkscape:perspective>
		<inkscape:perspective  sodipodi:type="inkscape:persp3d" inkscape:vp_x="0 : 526.18109 : 1" inkscape:vp_z="744.09448 : 526.18109 : 1" inkscape:vp_y="0 : 1000 : 0" id="perspective2479" inkscape:persp3d-origin="372.04724 : 350.78739 : 1">
		</inkscape:perspective>
</defs>
<sodipodi:namedview  showgrid="false" showguides="true" inkscape:cx="160.40553" inkscape:cy="83.435601" inkscape:zoom="2.9596211" objecttolerance="10" guidetolerance="10" gridtolerance="10000" borderopacity="1.0" bordercolor="#666666" pagecolor="#ffffff" id="base" inkscape:pageopacity="0.0" inkscape:pageshadow="2" inkscape:document-units="px" inkscape:current-layer="layer1" inkscape:guide-bbox="true" inkscape:window-width="1670" inkscape:window-height="966" inkscape:window-x="0" inkscape:window-y="27">
	<sodipodi:guide  position="90,179.27711" orientation="1,0" id="guide2466"></sodipodi:guide>
	<sodipodi:guide  position="0.171875,90" orientation="0,1" id="guide2468"></sodipodi:guide>
</sodipodi:namedview>
<rect id="rect2464" display="none" fill="none" width="180" height="180"/>
<path id="path4035" sodipodi:nodetypes="cccccccccccccccc" fill="#FFDD55" d="M86.546,6.081c1.386-3.297,5.633-2.87,6.738-0.033
	l19.224,59.405l62.387-0.214c3.574,0.295,4.439,4.27,2.332,6.237l-50.749,36.795l19.374,58.933c1.247,3.57-2.531,6.047-5.23,4.409
	L90.07,134.785l-50.155,36.7c-2.964,2.104-6.441-0.55-5.704-3.716l19.393-59.415L2.733,71.66c-2.115-2.013-1.069-6.003,2.352-6.216
	l62.389,0.066L86.546,6.081z"/>
<path id="path2396" sodipodi:r1="31.030365" sodipodi:arg1="0.96934162" sodipodi:r2="11.790262" sodipodi:arg2="1.5976602" sodipodi:sides="5" sodipodi:cy="47.058594" sodipodi:cx="-49.915737" sodipodi:type="star" inkscape:transform-center-y="-28.073845" inkscape:transform-center-x="-18.194663" inkscape:randomized="0" inkscape:rounded="0" inkscape:flatsided="false" fill="#D40000" d="
	M142.49,168.514l-52.426-38.177l-52.338,38.296l20.108-61.656L5.24,69.033l64.853,0.071L89.925,7.359l19.973,61.701l64.852-0.218
	l-52.508,38.062L142.49,168.514z"/>
<path id="path3493" inkscape:transform-center-y="33.222162" inkscape:transform-center-x="-24.068045" sodipodi:nodetypes="cccc" fill="#9B1111" d="
	M90.069,130.334l-0.212-34.249l52.628,72.427L90.069,130.334z"/>
<path id="path3487" inkscape:transform-center-y="-7.702591" inkscape:transform-center-x="39.26608" sodipodi:nodetypes="cccc" fill="#800000" d="
	M57.839,106.979L89.922,96.49L5.248,69.041L57.839,106.979z"/>
<path id="path3485" inkscape:transform-center-y="-41.046637" inkscape:transform-center-x="-9.212545" sodipodi:nodetypes="cccc" fill="#800000" d="
	M109.897,69.06L89.922,96.49V7.356L109.897,69.06z"/>
<path id="path3489" inkscape:transform-center-y="-7.9084925" inkscape:transform-center-x="-39.217817" sodipodi:nodetypes="cccc" fill="#550000" d="
	M122.24,106.903L89.922,96.49l84.814-27.64L122.24,106.903z"/>
<path id="path3495" inkscape:transform-center-y="33.153396" inkscape:transform-center-x="-24.200817" sodipodi:nodetypes="cccc" fill="#711717" d="
	M122.242,106.889L89.922,96.49l52.573,72.035L122.242,106.889z"/>
<path id="path3491" inkscape:transform-center-y="33.413577" inkscape:transform-center-x="24.131055" sodipodi:nodetypes="cccc" fill="#550000" d="
	M90.066,130.334L89.922,96.49l-52.186,72.135L90.066,130.334z"/>
<path id="path16" display="none" fill="#FDFA00" d="M104.365,174.886c-9.538,0.034-19.076,0.07-28.613,0.037
	c0.065-6.883-0.646-101.472-0.14-127.429c-7.634-0.123-15.27-0.184-22.905-0.287c0.207-10.854,0.109-21.708,0.284-32.561
	c18.697,1.553,37.586-0.729,56.205,0.984c7.09,5.702,13.538,13.363,23.383,14.237c0.12,6.031,0.152,12.065,0.111,18.1
	c-9.416-0.245-18.83-0.671-28.252-0.595C104.251,73.363,104.331,168.03,104.365,174.886z"/>
<path id="path2826" fill="#FFC709" stroke="#000000" stroke-width="1.5" d="M137.058,96.779
	c-11.848,12.236-28.433,19.854-46.794,19.854c-13.126,0-25.342-3.901-35.574-10.591l-8.339,12.329
	c12.611,8.302,27.696,13.146,43.913,13.146c22.505,0,42.84-9.32,57.386-24.295L137.058,96.779z"/>
<path id="path1305" fill="#FFC709" stroke="#000000" stroke-width="1.5" d="M82.417,43.978L25,150.057l64.998-83.899L155,150.057
	L97.588,43.978H82.417z"/>
<path id="rect8156" fill="#FFC709" stroke="#000000" stroke-width="2" stroke-linejoin="round" stroke-miterlimit="5" d="
	M89.895,40.822L89.895,40.822c5.27,0,9.542,4.273,9.542,9.544v0.475c0,5.271-4.272,9.544-9.542,9.544l0,0
	c-5.27,0-9.542-4.273-9.542-9.544v-0.475C80.353,45.095,84.625,40.822,89.895,40.822z"/>
<path id="path13464" fill="#FFC709" stroke="#000000" stroke-width="1.0038" stroke-linejoin="round" d="M93.949,50.443
	c0.004,2.232-1.804,4.045-4.035,4.049c-2.232,0.004-4.045-1.803-4.049-4.036c0-0.004,0-0.008,0-0.013
	c-0.004-2.233,1.803-4.046,4.035-4.049c2.232-0.004,4.045,1.803,4.049,4.036C93.949,50.435,93.949,50.439,93.949,50.443z"/>
</svg>
